{
  "data": [
    {
      "name": "Deno",
      "schema": 1682429060482,
      "status": "current",
      "version": "1.32",
      "browserid": "deno",
      "id": "92819795-b6f4-4223-8dcb-4dfaaa85a5ba",
      "last_modified": 1682429884605
    },
    {
      "name": "Node.js",
      "schema": 1682169844757,
      "status": "current",
      "version": "20.0.0",
      "browserid": "nodejs",
      "id": "59f25720-b682-46f5-8d95-a1f991c25b4c",
      "last_modified": 1682319518056
    },
    {
      "name": "Edge",
      "schema": 1681910646625,
      "status": "nightly",
      "version": "114",
      "browserid": "edge",
      "id": "4b52fc2d-7fef-432b-befe-ffe9725fb5ef",
      "last_modified": 1681914299806
    },
    {
      "name": "Firefox for Android",
      "schema": 1681910647302,
      "status": "nightly",
      "version": "114",
      "browserid": "firefox_android",
      "id": "aaf25914-81ab-472e-b17f-fe2b9dee7383",
      "last_modified": 1681914299800
    },
    {
      "name": "Firefox",
      "schema": 1681910646961,
      "status": "nightly",
      "version": "114",
      "browserid": "firefox",
      "id": "bf12a70d-f1da-46a1-abe1-b873feb2895a",
      "last_modified": 1681914299796
    },
    {
      "name": "Firefox for Android",
      "schema": 1681910647136,
      "status": "current",
      "version": "112",
      "browserid": "firefox_android",
      "id": "e69efd93-530d-4466-8506-b76cd88a0fd7",
      "last_modified": 1681914299792
    },
    {
      "name": "Firefox",
      "schema": 1681910646793,
      "status": "current",
      "version": "112",
      "browserid": "firefox",
      "id": "69ca36df-86aa-43f1-a35c-89940b11bebe",
      "last_modified": 1681914299787
    },
    {
      "name": "Edge",
      "schema": 1681910646444,
      "status": "current",
      "version": "112",
      "browserid": "edge",
      "id": "d72d44fe-f840-4042-9689-be25f8f3fc48",
      "last_modified": 1681914299775
    },
    {
      "name": "Firefox",
      "schema": 1681910646878,
      "status": "beta",
      "version": "113",
      "browserid": "firefox",
      "id": "36d33cd8-6e3a-4ab8-ad9c-ece003bcb1d0",
      "last_modified": 1681914299767
    },
    {
      "name": "Firefox for Android",
      "schema": 1681910647221,
      "status": "beta",
      "version": "113",
      "browserid": "firefox_android",
      "id": "0b7b7a9b-c2e0-4daa-be5a-1f8e3b333e14",
      "last_modified": 1681914299763
    },
    {
      "name": "Edge",
      "schema": 1681910646533,
      "status": "beta",
      "version": "113",
      "browserid": "edge",
      "id": "a191ad56-e312-4b3b-93ce-12d33b1e7fdd",
      "last_modified": 1681914299758
    },
    {
      "name": "Chrome",
      "schema": 1680960245728,
      "status": "nightly",
      "version": "114",
      "browserid": "chrome",
      "id": "d15957b5-767f-479d-bf0f-e923850284de",
      "last_modified": 1681198174502
    },
    {
      "name": "Chrome Android",
      "schema": 1680960246056,
      "status": "nightly",
      "version": "114",
      "browserid": "chrome_android",
      "id": "01dd2fba-f572-40c3-ab82-d6ca2e117d77",
      "last_modified": 1681198174497
    },
    {
      "name": "WebView Android",
      "schema": 1680960246384,
      "status": "nightly",
      "version": "114",
      "browserid": "webview_android",
      "id": "2dc688c9-32c9-4da6-a80b-b50959403bc5",
      "last_modified": 1681198174492
    },
    {
      "name": "Safari on iOS",
      "schema": 1680096245567,
      "status": "current",
      "version": "16.4",
      "browserid": "safari_ios",
      "id": "13737476-bd8e-49a0-bde7-d01e4aac6019",
      "last_modified": 1681198174479
    },
    {
      "name": "Safari",
      "schema": 1680096245388,
      "status": "current",
      "version": "16.4",
      "browserid": "safari",
      "id": "622fe41e-3628-478d-966b-8ed00e0b5b56",
      "last_modified": 1681198174475
    },
    {
      "name": "Chrome Android",
      "schema": 1680960245892,
      "status": "current",
      "version": "112",
      "browserid": "chrome_android",
      "id": "1f3d0b6c-cfc1-4d9a-817b-84afe10f7d75",
      "last_modified": 1681198174471
    },
    {
      "name": "WebView Android",
      "schema": 1680960246219,
      "status": "current",
      "version": "112",
      "browserid": "webview_android",
      "id": "11e416f7-0514-413d-a6ff-fa4d25f33182",
      "last_modified": 1681198174467
    },
    {
      "name": "Chrome",
      "schema": 1680960245551,
      "status": "current",
      "version": "112",
      "browserid": "chrome",
      "id": "ef8b5a2b-9377-4923-b905-dc9041df44c3",
      "last_modified": 1681198174455
    },
    {
      "name": "WebView Android",
      "schema": 1680960246303,
      "status": "beta",
      "version": "113",
      "browserid": "webview_android",
      "id": "3b7e7208-ac56-4aa5-81a1-11d49e7eb7ec",
      "last_modified": 1681198174447
    },
    {
      "name": "Chrome Android",
      "schema": 1680960245974,
      "status": "beta",
      "version": "113",
      "browserid": "chrome_android",
      "id": "8863ff12-d171-4987-a8a2-3ad47c466205",
      "last_modified": 1681198174443
    },
    {
      "name": "Chrome",
      "schema": 1680960245639,
      "status": "beta",
      "version": "113",
      "browserid": "chrome",
      "id": "a1cfb4ee-e783-46ff-b410-5fcc9e44c48f",
      "last_modified": 1681198174439
    },
    {
      "name": "Opera Android",
      "schema": 1679145859850,
      "status": "current",
      "version": "74",
      "browserid": "opera_android",
      "id": "81824509-a511-4fb0-ad6c-2621ea61fa77",
      "last_modified": 1679292138402
    },
    {
      "name": "Opera",
      "schema": 1678454666556,
      "status": "nightly",
      "version": "98",
      "browserid": "opera",
      "id": "048cf0bc-8f77-4897-bf08-0cb3503eb9e4",
      "last_modified": 1678458552588
    },
    {
      "name": "Opera",
      "schema": 1678454666388,
      "status": "current",
      "version": "96",
      "browserid": "opera",
      "id": "95fd1f92-7a9a-413e-af7c-2b58179691dc",
      "last_modified": 1678458552566
    },
    {
      "name": "Opera",
      "schema": 1678454666470,
      "status": "beta",
      "version": "97",
      "browserid": "opera",
      "id": "ea3999af-d75b-41c7-b744-ef9badfb4723",
      "last_modified": 1678458552562
    },
    {
      "name": "Samsung Internet",
      "schema": 1677245063433,
      "status": "current",
      "version": "20.0",
      "browserid": "samsunginternet_android",
      "id": "74a1c6f7-709f-410d-8540-a0a4545b042b",
      "last_modified": 1677256449920
    },
    {
      "name": "Node.js",
      "schema": 1666790648265,
      "status": "esr",
      "version": "18.0.0",
      "browserid": "nodejs",
      "id": "dabd5799-c9e6-4bf0-b69b-f17173924b4e",
      "last_modified": 1666884917909
    },
    {
      "name": "Quest Browser",
      "schema": 1665650596430,
      "status": "current",
      "version": "23.0",
      "browserid": "oculus",
      "id": "371ced3b-8ff1-4540-a230-bc1827964bda",
      "last_modified": 1665656484764
    },
    {
      "name": "Firefox",
      "schema": 1662643476348,
      "status": "planned",
      "version": "115",
      "browserid": "firefox",
      "id": "f8bed161-4be5-435b-9b42-7a7eafd672b7",
      "last_modified": 1662648201682
    },
    {
      "name": "Firefox",
      "schema": 1662643476387,
      "status": "planned",
      "version": "116",
      "browserid": "firefox",
      "id": "0486c6bc-210b-48ea-aeb8-2b9712bae1d7",
      "last_modified": 1662648201680
    },
    {
      "name": "Firefox",
      "schema": 1662643476427,
      "status": "planned",
      "version": "117",
      "browserid": "firefox",
      "id": "52767e7f-9d5f-4c85-a37f-a384bd816f07",
      "last_modified": 1662648201677
    },
    {
      "name": "Firefox",
      "schema": 1662643476470,
      "status": "planned",
      "version": "118",
      "browserid": "firefox",
      "id": "e99e2604-f5e8-4509-ae9e-a6335540a0b5",
      "last_modified": 1662648201674
    },
    {
      "name": "Firefox",
      "schema": 1662643476509,
      "status": "planned",
      "version": "119",
      "browserid": "firefox",
      "id": "d475c40b-3ba8-4a2b-b750-7977cad2e95d",
      "last_modified": 1662648201672
    },
    {
      "name": "Firefox",
      "schema": 1662643476548,
      "status": "planned",
      "version": "120",
      "browserid": "firefox",
      "id": "8abd289c-120a-47ed-a194-d3a7b6bad31b",
      "last_modified": 1662648201669
    },
    {
      "name": "Firefox",
      "schema": 1662643476587,
      "status": "planned",
      "version": "121",
      "browserid": "firefox",
      "id": "6fa4f808-5e0b-4f2a-a108-600e52ea90f9",
      "last_modified": 1662648201666
    },
    {
      "name": "Firefox for Android",
      "schema": 1662643477021,
      "status": "planned",
      "version": "115",
      "browserid": "firefox_android",
      "id": "a657def5-a3f2-41ce-9536-9e3562381701",
      "last_modified": 1662648201648
    },
    {
      "name": "Firefox for Android",
      "schema": 1662643477060,
      "status": "planned",
      "version": "116",
      "browserid": "firefox_android",
      "id": "1eb86483-655c-4a82-9c00-66feedaeea18",
      "last_modified": 1662648201645
    },
    {
      "name": "Firefox for Android",
      "schema": 1662643477100,
      "status": "planned",
      "version": "117",
      "browserid": "firefox_android",
      "id": "4a14a019-c00f-4fb0-ba03-f78098859593",
      "last_modified": 1662648201643
    },
    {
      "name": "Firefox for Android",
      "schema": 1662643477139,
      "status": "planned",
      "version": "118",
      "browserid": "firefox_android",
      "id": "3e23675d-e6be-45c3-b412-ccde0b34d390",
      "last_modified": 1662648201640
    },
    {
      "name": "Firefox for Android",
      "schema": 1662643477179,
      "status": "planned",
      "version": "119",
      "browserid": "firefox_android",
      "id": "53acec8b-f665-4eee-8ff2-620b46a46445",
      "last_modified": 1662648201638
    },
    {
      "name": "Firefox for Android",
      "schema": 1662643477220,
      "status": "planned",
      "version": "120",
      "browserid": "firefox_android",
      "id": "34ccbda4-8e0a-46a0-b6c1-5d877aa0a1a9",
      "last_modified": 1662648201635
    },
    {
      "name": "Firefox for Android",
      "schema": 1662643477258,
      "status": "planned",
      "version": "121",
      "browserid": "firefox_android",
      "id": "23a8ddf5-b9a1-40c9-b72b-27fefb20f9b9",
      "last_modified": 1662648201632
    },
    {
      "name": "Node.js",
      "schema": 1661424922206,
      "status": "esr",
      "version": "16.17.0",
      "browserid": "nodejs",
      "id": "a7efd4b1-c035-4333-bfa9-148cd9878ac9",
      "last_modified": 1661426998144
    },
    {
      "name": "Firefox",
      "schema": 1645203736177,
      "status": "esr",
      "version": "91",
      "browserid": "firefox",
      "id": "89070c3d-2805-41d8-80aa-443b238f5fb2",
      "last_modified": 1645448267580
    },
    {
      "name": "Node.js",
      "schema": 1645204132602,
      "status": "esr",
      "version": "14.8.0",
      "browserid": "nodejs",
      "id": "4436cf1f-e30d-401a-893f-306dfd0b1e4e",
      "last_modified": 1645448267500
    }
  ],
  "timestamp": 1682429884605
}
